Country,Grouping
Areas beyond national jurisdiction,ABNJ
Australia,Oceania
Bahamas,Caribbean
Barbados,Caribbean
Belize,C.Amer.-Mex.
Canada,Canada
Fiji,Oceania
Ghana,Africa
Gibraltar,Europe
Grenada,Caribbean
Ireland,Europe
Liberia,Africa
Malta,Europe
Marshall Islands,Oceania
Mauritius,Africa
Mexico,C.Amer.-Mex.
Netherlands,Europe
New Zealand,Oceania
Philippines,Asia
Saint Helena,Africa
Seychelles,Africa
Sri Lanka,Asia
St. Lucia,Caribbean
St. Vincent and the Grenadines,Caribbean
Sudan,Africa
Tanzania,Africa
Trinidad and Tobago,Caribbean
United Kingdom,UK
United States,USA
